<?xml version="1.0" encoding="iso-8859-1"?>
<!-- Generator: Adobe Illustrator 18.0.0, SVG Export Plug-In . SVG Version: 6.00 Build 0)  -->
<!DOCTYPE svg PUBLIC "-//W3C//DTD SVG 1.1//EN" "http://www.w3.org/Graphics/SVG/1.1/DTD/svg11.dtd">
<svg xmlns="http://www.w3.org/2000/svg" xmlns:xlink="http://www.w3.org/1999/xlink" version="1.1" id="Capa_1" x="0px" y="0px" viewBox="0 0 297 297" style="enable-background:new 0 0 297 297;" xml:space="preserve" width="512px" height="512px">
<path d="M286.579,103.488h-30.203L190.39,37.502c-4.07-4.069-10.667-4.069-14.738,0c-4.069,4.069-4.069,10.668,0,14.738  l51.249,51.248h-36.366V78.033c0-10.56-8.593-19.154-19.154-19.154h-45.76c-10.562,0-19.154,8.594-19.154,19.154v25.455H70.101  l51.25-51.248c4.069-4.07,4.069-10.669,0-14.738c-4.07-4.067-10.667-4.069-14.738,0l-65.988,65.986H10.421  C4.666,103.488,0,108.154,0,113.909c0,5.755,4.666,10.421,10.421,10.421h10.606v97.396c0,22.51,18.315,40.824,40.825,40.824h173.297  c22.51,0,40.823-18.314,40.823-40.824V124.33h10.606c5.755,0,10.421-4.666,10.421-10.421  C297,108.154,292.334,103.488,286.579,103.488z M173.86,147.598c0,4.604,3.733,8.337,8.337,8.337h26.348  c1.017,0,1.921,0.608,2.302,1.55c0.38,0.942,0.154,2.008-0.577,2.715l-60.046,58.015c-0.596,0.575-1.266,0.696-1.724,0.696  s-1.128-0.121-1.724-0.696l-60.047-58.017c-0.73-0.705-0.956-1.771-0.575-2.711c0.38-0.943,1.284-1.552,2.301-1.552h26.348  c4.604,0,8.337-3.733,8.337-8.337V78.033c0-1.367,1.113-2.48,2.48-2.48h45.76c1.367,0,2.48,1.113,2.48,2.48V147.598z" fill="#FFFFFF"/>
<g>
</g>
<g>
</g>
<g>
</g>
<g>
</g>
<g>
</g>
<g>
</g>
<g>
</g>
<g>
</g>
<g>
</g>
<g>
</g>
<g>
</g>
<g>
</g>
<g>
</g>
<g>
</g>
<g>
</g>
</svg>
